…
## Cars per Ten Thousand People

``` r
JoinData <-
  JoinData %>%
    mutate(carsPerThousand = (totalCar/Population) * 1000) %>%
    mutate(carsPerThousand = round(carsPerThousand)) #Create a metric called carsPerThousand which is the cars per thousand residents
  print(JoinData)
```

    ## # A tibble: 39 × 10
    ## # Groups:   County [39]
    ##    County   totalCar Population MedianAge SixtyFivePlus Asian BachelorsDegree
    ##    <chr>       <int>      <dbl>     <dbl>         <dbl> <dbl>           <dbl>
    ##  1 Adams          48      17677      40            1835   100            1217
    ##  2 Asotin         73      20330      39.4          3331   105            2428
    ##  3 Benton       1860     154790      33.8         15816  3225           24027
    ##  4 Chelan       1047      65784      34.9          9161   447            9228
    ##  5 Clallam      1058      65005      40           13819   737            9524
    ##  6 Clark       10409     354729      35.6         33773 11139           48770
    ##  7 Columbia       16       3806      42.5           716    16             455
    ##  8 Cowlitz       897      94419      39.4         12350  1221            8160
    ##  9 Douglas       364      40839      40.6          5368   214            3939
    ## 10 Ferry          31      11036      38            1447    30             910
    ## # ℹ 29 more rows
    ## # ℹ 3 more variables: MeanTravelTime <dbl>, MedianHouseholdIncome <dbl>,
    ## #   carsPerThousand <dbl>
…
